[gd_scene load_steps=3 format=2]

[ext_resource path="res://blokoj/kosmostacioj/CapKosmostacio.png" type="Texture2D" id=1]
[ext_resource path="res://blokoj/kosmostacioj/Kosmostacio.gd" type="Script" id=2]

[node name="Node2D" type="Node2D"]
script = ExtResource( 2 )

[node name="ParallaxBackground" type="ParallaxBackground" parent="."]
follow_viewport_enabled = true

[node name="TextureRect" type="TextureRect" parent="ParallaxBackground"]
anchor_right = 1.0
anchor_bottom = 1.0
texture = ExtResource( 1 )
expand = true
__meta__ = {
"_edit_use_anchors_": false
}

[node name="Status" type="Label" parent="ParallaxBackground"]
anchor_left = 0.5
anchor_top = 1.0
anchor_right = 0.594
anchor_bottom = 1.0
offset_left = -5.548
offset_top = -31.556
offset_right = 0.195984
offset_bottom = -19.556
__meta__ = {
"_edit_use_anchors_": false
}

[node name="GreetingLabel" type="Label" parent="ParallaxBackground"]
anchor_left = 0.317
anchor_right = 0.708
offset_left = 0.0469971
offset_top = 21.0527
offset_right = -0.336975
offset_bottom = 51.0527
align = 1
valign = 1
__meta__ = {
"_edit_use_anchors_": false
}
