[gd_scene load_steps=4 format=2]

[ext_resource path="res://blokoj/asteroidoj/resursoj/ast_ice_1.glb" type="PackedScene" id=1]
[ext_resource path="res://blokoj/asteroidoj/skriptoj/ast_.gd" type="Script" id=2]

[sub_resource type="ConcavePolygonShape3D" id=1]
data = PackedVector3Array( -2.3751, 10.908, -14.0746, 1.3338, 13.1537, -8.5428, -5.6374, 12.025, -6.4702, -2.3751, 10.908, -14.0746, -5.6374, 12.025, -6.4702, -11.2203, 10.8577, -12.2584, 3.8895, 12.6882, -9.3297, 7.0919, 12.1079, -2.8112, 1.3338, 13.1537, -8.5428, 1.3338, 13.1537, -8.5428, 7.0919, 12.1079, -2.8112, 0.2678, 12.3721, 0.6715, 0.2678, 12.3721, 0.6715, 7.0919, 12.1079, -2.8112, 5.1679, 11.29, 1.2994, -11.457, 11.7682, -5.3907, -4.9968, 11.824, 3.4161, -13.1207, 10.7561, 1.1216, 8.9957, 11.1961, -2.5301, 8.3637, 7.7713, 2.734, 5.1679, 11.29, 1.2994, 0.6633, 11.0112, 3.9181, 5.1679, 11.29, 1.2994, 8.3637, 7.7713, 2.734, 0.2678, 12.3721, 0.6715, 0.6633, 11.0112, 3.9181, -4.9968, 11.824, 3.4161, -4.9968, 11.824, 3.4161, 0.6633, 11.0112, 3.9181, -7.8278, 10.2539, 5.0873, 8.5156, 3.5774, -16.901, 11.9058, 6.5444, -11.4516, 7.023, 9.5077, -11.8108, 4.7286, 3.0201, -18.8342, 7.023, 9.5077, -11.8108, 1.6618, 10.2065, -13.6837, -8.4034, 7.2106, -16.3399, -4.2933, 8.1308, -17.5987, -13.2761, 8.4968, -14.3522, -13.2761, 8.4968, -14.3522, -11.2203, 10.8577, -12.2584, -15.9967, 9.4897, -9.3412, -16.0733, 6.9558, 3.3252, -7.8278, 10.2539, 5.0873, -12.4793, 6.0509, 5.9899, 8.3637, 7.7713, 2.734, 11.4683, 3.4962, 2.9085, 6.6068, 4.7751, 4.8923, 11.1177, 7.8105, -0.5575, 11.4683, 3.4962, 2.9085, 8.3637, 7.7713, 2.734, 13.6119, 4.6226, -3.7321, 11.1177, 7.8105, -0.5575, 8.9957, 11.1961, -2.5301, 14.8998, 5.4171, -8.3243, 13.6119, 4.6226, -3.7321, 8.9957, 11.1961, -2.5301, 11.6494, 9.0107, -7.2911, 14.8998, 5.4171, -8.3243, 8.9957, 11.1961, -2.5301, 10.9102, -9.9219, 5.5937, 13.2947, -14.4762, 3.6837, 6.6305, -14.6673, 8.5066, 8.8637, -5.3661, 7.9138, 10.9102, -9.9219, 5.5937, 6.2703, -11.5433, 9.2368, 6.6068, 4.7751, 4.8923, 13.2267, -3.3247, 4.0136, 8.4736, -0.6885, 7.0249, 3.8895, 12.6882, -9.3297, -2.3751, 10.908, -14.0746, 1.6618, 10.2065, -13.6837, 3.8895, 12.6882, -9.3297, 1.3338, 13.1537, -8.5428, -2.3751, 10.908, -14.0746, 8.4736, -0.6885, 7.0249, 8.8637, -5.3661, 7.9138, 2.343, -2.8218, 10.115, 6.6305, -14.6673, 8.5066, 7.7514, -21.6016, 5.2103, -0.0348, -21.3267, 7.1548, 2.938, -9.7516, 10.1196, 6.6305, -14.6673, 8.5066, -0.4843, -17.6407, 8.2937, 2.343, -2.8218, 10.115, 6.2703, -11.5433, 9.2368, 2.938, -9.7516, 10.1196, -3.9593, -5.0829, 10.8292, -3.3869, -12.6763, 8.9093, -9.2229, -6.0436, 10.2291, -3.2418, 3.9005, 9.7358, -3.4132, -0.3265, 10.8213, -12.0592, -3.3028, 8.9935, -12.4793, 6.0509, 5.9899, -4.9467, 6.9079, 8.2548, -14.4027, 2.9403, 5.7625, 11.9746, -21.7431, -0.6329, 7.7514, -21.6016, 5.2103, 11.9105, -20.0338, 2.8168, 13.2267, -3.3247, 4.0136, 14.8651, -11.6908, 1.8421, 10.9102, -9.9219, 5.5937, -7.8278, 10.2539, 5.0873, -4.9467, 6.9079, 8.2548, -12.4793, 6.0509, 5.9899, -14.4027, 2.9403, 5.7625, -12.0592, -3.3028, 8.9935, -15.4932, -4.4431, 7.8174, -9.2229, -6.0436, 10.2291, -12.4633, -12.8055, 8.4395, -15.4932, -4.4431, 7.8174, -12.0592, -3.3028, 8.9935, -9.2229, -6.0436, 10.2291, -15.4932, -4.4431, 7.8174, -0.0348, -21.3267, 7.1548, 0.7477, -25.0291, 4.4133, -7.3297, -23.2276, 4.4928, 5.1884, -24.9721, 2.269, 0.7477, -25.0291, 4.4133, 7.7514, -21.6016, 5.2103, -16.8818, -12.1623, 4.6823, -15.2933, -16.3257, 3.7843, -20.2222, -13.5684, -1.9549, -18.3632, -2.5116, 5.2218, -16.8818, -12.1623, 4.6823, -21.3482, -8.3932, 1.0324, -16.0733, 6.9558, 3.3252, -18.3632, -2.5116, 5.2218, -19.7531, 3.7305, 1.6308, -21.3482, -8.3932, 1.0324, -16.8818, -12.1623, 4.6823, -20.2222, -13.5684, -1.9549, -22.1399, -3.718, 0.3172, -21.3482, -8.3932, 1.0324, -23.3793, -6.4685, -5.7095, -22.1399, -3.718, 0.3172, -21.9523, 0.5162, -6.0751, -19.7531, 3.7305, 1.6308, -18.6553, 8.6659, -3.7032, -19.7531, 3.7305, 1.6308, -19.4331, 4.8193, -8.0387, -23.3793, -6.4685, -5.7095, -20.2222, -13.5684, -1.9549, -18.8209, -16.0009, -9.3402, -23.3793, -6.4685, -5.7095, -20.5063, -11.4963, -12.1285, -21.2576, -5.4759, -13.8873, -23.3793, -6.4685, -5.7095, -21.2576, -5.4759, -13.8873, -21.1267, 0.5448, -8.7152, -21.9523, 0.5162, -6.0751, -21.1267, 0.5448, -8.7152, -19.4331, 4.8193, -8.0387, -20.5063, -11.4963, -12.1285, -19.9103, -9.2289, -14.4718, -21.2576, -5.4759, -13.8873, -21.1267, 0.5448, -8.7152, -20.2798, -0.8083, -15.9034, -18.7239, 4.9337, -13.5675, -15.4932, -4.4431, 7.8174, -12.4633, -12.8055, 8.4395, -16.8818, -12.1623, 4.6823, -14.4027, 2.9403, 5.7625, -15.4932, -4.4431, 7.8174, -18.3632, -2.5116, 5.2218, -16.0733, 6.9558, 3.3252, -18.6553, 8.6659, -3.7032, -13.1207, 10.7561, 1.1216, -18.6553, 8.6659, -3.7032, -19.4331, 4.8193, -8.0387, -15.9967, 9.4897, -9.3412, -19.4331, 4.8193, -8.0387, -18.7239, 4.9337, -13.5675, -15.9967, 9.4897, -9.3412, -21.2576, -5.4759, -13.8873, -19.9103, -9.2289, -14.4718, -17.96, -4.6197, -17.2888, -19.9103, -9.2289, -14.4718, -17.99, -14.5791, -12.5126, -15.8946, -8.9978, -16.8218, -18.8209, -16.0009, -9.3402, -16.0293, -18.4766, -10.2635, -17.99, -14.5791, -12.5126, -20.2222, -13.5684, -1.9549, -15.2933, -16.3257, 3.7843, -12.3623, -21.7041, -5.1056, 2.5811, -20.5336, -14.1196, -5.8255, -22.644, -10.3643, -2.4799, -24.1662, -8.1735, -5.8255, -22.644, -10.3643, -10.6554, -18.431, -13.8628, -8.8024, -24.5418, -5.6076, 7.4587, -22.962, -10.9039, 2.5811, -20.5336, -14.1196, 3.1592, -24.5974, -9.5695, -8.8024, -24.5418, -5.6076, -13.8601, -21.1184, -7.8027, -12.3623, -21.7041, -5.1056, 5.9263, -25.7571, -7.7138, -2.4799, -24.1662, -8.1735, 2.2416, -27.1118, -5.2205, -3.2842, -26.1854, -4.2106, -8.8024, -24.5418, -5.6076, -6.9504, -25.1906, 0.2214, 2.2416, -27.1118, -5.2205, -3.2842, -26.1854, -4.2106, -1.3757, -27.3372, -1.2776, -8.8024, -24.5418, -5.6076, -12.3623, -21.7041, -5.1056, -10.8777, -21.9674, 0.7398, -6.9504, -25.1906, 0.2214, -8.8024, -24.5418, -5.6076, -10.8777, -21.9674, 0.7398, 2.2416, -27.1118, -5.2205, -0.446, -26.9418, 1.0644, 5.1884, -24.9721, 2.269, 5.9263, -25.7571, -7.7138, 5.1884, -24.9721, 2.269, 9.1108, -24.3788, -6.3699, 11.9746, -21.7431, -0.6329, 9.1108, -24.3788, -6.3699, 8.2899, -23.1809, 0.5279, 8.2899, -23.1809, 0.5279, 7.7514, -21.6016, 5.2103, 11.9746, -21.7431, -0.6329, -0.446, -26.9418, 1.0644, -7.3297, -23.2276, 4.4928, 0.7477, -25.0291, 4.4133, -10.8777, -21.9674, 0.7398, -12.3623, -21.7041, -5.1056, -15.2933, -16.3257, 3.7843, -12.3623, -21.7041, -5.1056, -18.8209, -16.0009, -9.3402, -20.2222, -13.5684, -1.9549, -12.8056, -19.1205, -12.5879, -16.0293, -18.4766, -10.2635, -13.8601, -21.1184, -7.8027, 13.6575, -8.9408, -14.3081, 12.9593, -14.5905, -13.2039, 17.0779, -8.9076, -7.3229, 13.6575, -8.9408, -14.3081, 17.0779, -8.9076, -7.3229, 17.2534, -3.4424, -9.2901, 14.6406, -3.7705, -14.0967, 17.2534, -3.4424, -9.2901, 16.5428, 1.2673, -9.7558, 10.9906, -21.4812, -10.1978, 13.3315, -20.7617, -5.344, 14.742, -17.3104, -6.3907, 12.9593, -14.5905, -13.2039, 14.742, -17.3104, -6.3907, 17.0779, -8.9076, -7.3229, 16.5428, 1.2673, -9.7558, 16.9493, -1.3792, -4.7585, 14.8998, 5.4171, -8.3243, 17.0779, -8.9076, -7.3229, 15.4056, -17.1896, -0.9876, 17.2169, -12.472, -0.7768, 17.2534, -3.4424, -9.2901, 18.2641, -8.1169, -0.8423, 16.9493, -1.3792, -4.7585, 14.742, -17.3104, -6.3907, 13.3315, -20.7617, -5.344, 15.4056, -17.1896, -0.9876, 16.9493, -1.3792, -4.7585, 18.2641, -8.1169, -0.8423, 13.6119, 4.6226, -3.7321, 13.3315, -20.7617, -5.344, 11.9746, -21.7431, -0.6329, 15.4056, -17.1896, -0.9876, 15.4056, -17.1896, -0.9876, 14.8651, -11.6908, 1.8421, 17.2169, -12.472, -0.7768, 17.2169, -12.472, -0.7768, 14.8651, -11.6908, 1.8421, 18.2641, -8.1169, -0.8423, 18.2641, -8.1169, -0.8423, 14.8651, -11.6908, 1.8421, 13.2267, -3.3247, 4.0136, 13.8361, 2.393, 0.6504, 18.2641, -8.1169, -0.8423, 13.2267, -3.3247, 4.0136, 13.6575, -8.9408, -14.3081, 6.177, -17.3011, -15.5279, 8.8961, -17.2712, -13.9334, 9.1714, -0.2329, -18.2824, 13.7336, 0.5448, -14.2804, 8.5156, 3.5774, -16.901, 8.5156, 3.5774, -16.901, 13.7336, 0.5448, -14.2804, 11.9058, 6.5444, -11.4516, 13.6119, 4.6226, -3.7321, 13.8361, 2.393, 0.6504, 11.1177, 7.8105, -0.5575, 15.4056, -17.1896, -0.9876, 11.9105, -20.0338, 2.8168, 13.2947, -14.4762, 3.6837, 13.3315, -20.7617, -5.344, 10.9906, -21.4812, -10.1978, 9.1108, -24.3788, -6.3699, -15.8946, -8.9978, -16.8218, -10.555, -11.7804, -18.9073, -13.7813, -7.757, -19.4233, -17.96, -4.6197, -17.2888, -13.7813, -7.757, -19.4233, -13.7198, -3.224, -19.3163, -13.7198, -3.224, -19.3163, -13.7813, -7.757, -19.4233, -8.523, -4.6252, -20.9387, -13.2761, 8.4968, -14.3522, -15.7328, 2.1891, -17.4174, -10.9534, 1.4185, -18.6795, -11.2419, -9.8557, -20.0858, -10.555, -11.7804, -18.9073, -4.0973, -12.9521, -19.4754, -8.523, -4.6252, -20.9387, -11.2419, -9.8557, -20.0858, -4.0973, -12.9521, -19.4754, -8.523, -4.6252, -20.9387, -4.0973, -12.9521, -19.4754, -0.775, -7.1924, -20.6148, -4.0973, -12.9521, -19.4754, -7.1751, -15.7373, -18.1244, -0.2763, -11.6532, -19.6218, -0.775, -7.1924, -20.6148, -4.0973, -12.9521, -19.4754, -0.2763, -11.6532, -19.6218, -3.5415, -0.421, -20.7523, -0.775, -7.1924, -20.6148, 3.097, -2.0234, -20.7732, -0.775, -7.1924, -20.6148, -0.2763, -11.6532, -19.6218, 7.8636, -6.3013, -17.9299, -3.4171, 5.2634, -19.3215, 4.7286, 3.0201, -18.8342, -1.1836, 6.7888, -18.5045, 7.8636, -6.3013, -17.9299, -0.2763, -11.6532, -19.6218, 6.177, -17.3011, -15.5279, 4.7286, 3.0201, -18.8342, 3.097, -2.0234, -20.7732, 9.1714, -0.2329, -18.2824, -17.96, -4.6197, -17.2888, -19.9103, -9.2289, -14.4718, -15.8946, -8.9978, -16.8218, -20.2798, -0.8083, -15.9034, -13.7198, -3.224, -19.3163, -15.7328, 2.1891, -17.4174, -8.4034, 7.2106, -16.3399, -3.4171, 5.2634, -19.3215, -4.2933, 8.1308, -17.5987, 7.8636, -6.3013, -17.9299, 6.177, -17.3011, -15.5279, 13.6575, -8.9408, -14.3081, -7.1751, -15.7373, -18.1244, -0.6547, -17.1694, -17.2432, -0.2763, -11.6532, -19.6218, -15.0109, -13.9842, -14.5695, -12.8056, -19.1205, -12.5879, -10.555, -11.7804, -18.9073, 7.023, 9.5077, -11.8108, 3.8895, 12.6882, -9.3297, 1.6618, 10.2065, -13.6837, 11.6494, 9.0107, -7.2911, 3.8895, 12.6882, -9.3297, 7.023, 9.5077, -11.8108, 8.9957, 11.1961, -2.5301, 3.8895, 12.6882, -9.3297, 11.6494, 9.0107, -7.2911, 7.0919, 12.1079, -2.8112, 3.8895, 12.6882, -9.3297, 8.9957, 11.1961, -2.5301, -11.2203, 10.8577, -12.2584, -5.6374, 12.025, -6.4702, -11.457, 11.7682, -5.3907, -11.2203, 10.8577, -12.2584, -16.9705, 10.1725, -4.2788, -15.9967, 9.4897, -9.3412, -11.2203, 10.8577, -12.2584, -11.457, 11.7682, -5.3907, -16.9705, 10.1725, -4.2788, -5.6374, 12.025, -6.4702, -4.9968, 11.824, 3.4161, -11.457, 11.7682, -5.3907, -5.6374, 12.025, -6.4702, 0.2678, 12.3721, 0.6715, -4.9968, 11.824, 3.4161, 1.3338, 13.1537, -8.5428, 0.2678, 12.3721, 0.6715, -5.6374, 12.025, -6.4702, -11.457, 11.7682, -5.3907, -13.1207, 10.7561, 1.1216, -16.9705, 10.1725, -4.2788, 8.9957, 11.1961, -2.5301, 5.1679, 11.29, 1.2994, 7.0919, 12.1079, -2.8112, 1.6618, 10.2065, -13.6837, -4.2933, 8.1308, -17.5987, -1.1836, 6.7888, -18.5045, 1.6618, 10.2065, -13.6837, -2.3751, 10.908, -14.0746, -4.2933, 8.1308, -17.5987, 11.1177, 7.8105, -0.5575, 8.3637, 7.7713, 2.734, 8.9957, 11.1961, -2.5301, 5.1679, 11.29, 1.2994, 0.6633, 11.0112, 3.9181, 0.2678, 12.3721, 0.6715, -4.9968, 11.824, 3.4161, -7.8278, 10.2539, 5.0873, -13.1207, 10.7561, 1.1216, 8.5156, 3.5774, -16.901, 7.023, 9.5077, -11.8108, 4.7286, 3.0201, -18.8342, 6.6305, -14.6673, 8.5066, 11.9105, -20.0338, 2.8168, 7.7514, -21.6016, 5.2103, 6.6305, -14.6673, 8.5066, 13.2947, -14.4762, 3.6837, 11.9105, -20.0338, 2.8168, -2.3751, 10.908, -14.0746, -11.2203, 10.8577, -12.2584, -4.2933, 8.1308, -17.5987, -4.2933, 8.1308, -17.5987, -11.2203, 10.8577, -12.2584, -13.2761, 8.4968, -14.3522, -13.2761, 8.4968, -14.3522, -15.9967, 9.4897, -9.3412, -18.7239, 4.9337, -13.5675, -13.1207, 10.7561, 1.1216, -7.8278, 10.2539, 5.0873, -16.0733, 6.9558, 3.3252, 0.6633, 11.0112, 3.9181, -4.9467, 6.9079, 8.2548, -7.8278, 10.2539, 5.0873, 8.3637, 7.7713, 2.734, 6.6068, 4.7751, 4.8923, 0.6633, 11.0112, 3.9181, 13.8361, 2.393, 0.6504, 11.4683, 3.4962, 2.9085, 11.1177, 7.8105, -0.5575, 11.9058, 6.5444, -11.4516, 11.6494, 9.0107, -7.2911, 7.023, 9.5077, -11.8108, -12.0592, -3.3028, 8.9935, -3.9593, -5.0829, 10.8292, -9.2229, -6.0436, 10.2291, -12.0592, -3.3028, 8.9935, -3.4132, -0.3265, 10.8213, -3.9593, -5.0829, 10.8292, 10.9102, -9.9219, 5.5937, 6.6305, -14.6673, 8.5066, 6.2703, -11.5433, 9.2368, 13.2267, -3.3247, 4.0136, 10.9102, -9.9219, 5.5937, 8.8637, -5.3661, 7.9138, 13.2267, -3.3247, 4.0136, 8.8637, -5.3661, 7.9138, 8.4736, -0.6885, 7.0249, 6.2703, -11.5433, 9.2368, 6.6305, -14.6673, 8.5066, 2.938, -9.7516, 10.1196, 8.8637, -5.3661, 7.9138, 6.2703, -11.5433, 9.2368, 2.343, -2.8218, 10.115, 8.4736, -0.6885, 7.0249, 2.343, -2.8218, 10.115, 6.6068, 4.7751, 4.8923, 6.6305, -14.6673, 8.5066, -0.0348, -21.3267, 7.1548, -0.4843, -17.6407, 8.2937, 2.938, -9.7516, 10.1196, -0.4843, -17.6407, 8.2937, -3.3869, -12.6763, 8.9093, 2.343, -2.8218, 10.115, 2.938, -9.7516, 10.1196, -3.9593, -5.0829, 10.8292, 2.343, -2.8218, 10.115, -3.9593, -5.0829, 10.8292, -3.4132, -0.3265, 10.8213, -0.4843, -17.6407, 8.2937, -9.0249, -18.9497, 7.2775, -3.3869, -12.6763, 8.9093, 2.938, -9.7516, 10.1196, -3.3869, -12.6763, 8.9093, -3.9593, -5.0829, 10.8292, 2.343, -2.8218, 10.115, -3.4132, -0.3265, 10.8213, -3.2418, 3.9005, 9.7358, -3.3869, -12.6763, 8.9093, -9.0249, -18.9497, 7.2775, -7.7821, -13.5189, 9.1074, -3.3869, -12.6763, 8.9093, -7.7821, -13.5189, 9.1074, -9.2229, -6.0436, 10.2291, -10.6554, -18.431, -13.8628, -13.8601, -21.1184, -7.8027, -8.8024, -24.5418, -5.6076, -10.6554, -18.431, -13.8628, -12.8056, -19.1205, -12.5879, -13.8601, -21.1184, -7.8027, -3.2418, 3.9005, 9.7358, -12.0592, -3.3028, 8.9935, -4.9467, 6.9079, 8.2548, -7.7821, -13.5189, 9.1074, -9.0249, -18.9497, 7.2775, -12.4633, -12.8055, 8.4395, -7.7821, -13.5189, 9.1074, -12.4633, -12.8055, 8.4395, -9.2229, -6.0436, 10.2291, -4.9467, 6.9079, 8.2548, -12.0592, -3.3028, 8.9935, -14.4027, 2.9403, 5.7625, 14.8651, -11.6908, 1.8421, 13.2947, -14.4762, 3.6837, 10.9102, -9.9219, 5.5937, 11.4683, 3.4962, 2.9085, 13.2267, -3.3247, 4.0136, 6.6068, 4.7751, 4.8923, 6.6068, 4.7751, 4.8923, 2.343, -2.8218, 10.115, -3.2418, 3.9005, 9.7358, 6.6068, 4.7751, 4.8923, -3.2418, 3.9005, 9.7358, 0.6633, 11.0112, 3.9181, 0.6633, 11.0112, 3.9181, -3.2418, 3.9005, 9.7358, -4.9467, 6.9079, 8.2548, -9.0249, -18.9497, 7.2775, -11.3291, -18.9326, 5.7282, -12.4633, -12.8055, 8.4395, -12.4633, -12.8055, 8.4395, -11.3291, -18.9326, 5.7282, -15.2933, -16.3257, 3.7843, -0.4843, -17.6407, 8.2937, -7.3297, -23.2276, 4.4928, -9.0249, -18.9497, 7.2775, -0.0348, -21.3267, 7.1548, -7.3297, -23.2276, 4.4928, -0.4843, -17.6407, 8.2937, 7.7514, -21.6016, 5.2103, 0.7477, -25.0291, 4.4133, -0.0348, -21.3267, 7.1548, -18.3632, -2.5116, 5.2218, -21.3482, -8.3932, 1.0324, -22.1399, -3.718, 0.3172, -18.3632, -2.5116, 5.2218, -22.1399, -3.718, 0.3172, -19.7531, 3.7305, 1.6308, -14.4027, 2.9403, 5.7625, -18.3632, -2.5116, 5.2218, -16.0733, 6.9558, 3.3252, -21.3482, -8.3932, 1.0324, -20.2222, -13.5684, -1.9549, -23.3793, -6.4685, -5.7095, -22.1399, -3.718, 0.3172, -23.3793, -6.4685, -5.7095, -21.9523, 0.5162, -6.0751, -23.3793, -6.4685, -5.7095, -21.1267, 0.5448, -8.7152, -21.9523, 0.5162, -6.0751, -19.7531, 3.7305, 1.6308, -21.9523, 0.5162, -6.0751, -19.4331, 4.8193, -8.0387, -23.3793, -6.4685, -5.7095, -18.8209, -16.0009, -9.3402, -20.5063, -11.4963, -12.1285, -21.1267, 0.5448, -8.7152, -21.2576, -5.4759, -13.8873, -20.2798, -0.8083, -15.9034, -21.1267, 0.5448, -8.7152, -18.7239, 4.9337, -13.5675, -19.4331, 4.8193, -8.0387, -20.5063, -11.4963, -12.1285, -17.99, -14.5791, -12.5126, -19.9103, -9.2289, -14.4718, -12.4633, -12.8055, 8.4395, -15.2933, -16.3257, 3.7843, -16.8818, -12.1623, 4.6823, -15.4932, -4.4431, 7.8174, -16.8818, -12.1623, 4.6823, -18.3632, -2.5116, 5.2218, -14.4027, 2.9403, 5.7625, -16.0733, 6.9558, 3.3252, -12.4793, 6.0509, 5.9899, -19.7531, 3.7305, 1.6308, -18.6553, 8.6659, -3.7032, -16.0733, 6.9558, 3.3252, -18.6553, 8.6659, -3.7032, -16.9705, 10.1725, -4.2788, -13.1207, 10.7561, 1.1216, -16.9705, 10.1725, -4.2788, -18.6553, 8.6659, -3.7032, -15.9967, 9.4897, -9.3412, -18.7239, 4.9337, -13.5675, -15.7328, 2.1891, -17.4174, -13.2761, 8.4968, -14.3522, -20.2798, -0.8083, -15.9034, -15.7328, 2.1891, -17.4174, -18.7239, 4.9337, -13.5675, -21.2576, -5.4759, -13.8873, -17.96, -4.6197, -17.2888, -20.2798, -0.8083, -15.9034, -17.99, -14.5791, -12.5126, -15.0109, -13.9842, -14.5695, -15.8946, -8.9978, -16.8218, -18.8209, -16.0009, -9.3402, -17.99, -14.5791, -12.5126, -20.5063, -11.4963, -12.1285, -7.1751, -15.7373, -18.1244, -10.6554, -18.431, -13.8628, -5.8255, -22.644, -10.3643, 16.5428, 1.2673, -9.7558, 11.9058, 6.5444, -11.4516, 13.7336, 0.5448, -14.2804, 14.8998, 5.4171, -8.3243, 11.9058, 6.5444, -11.4516, 16.5428, 1.2673, -9.7558, 2.5811, -20.5336, -14.1196, -2.4799, -24.1662, -8.1735, 3.1592, -24.5974, -9.5695, 7.4587, -22.962, -10.9039, 3.1592, -24.5974, -9.5695, 5.9263, -25.7571, -7.7138, -5.8255, -22.644, -10.3643, -8.8024, -24.5418, -5.6076, -2.4799, -24.1662, -8.1735, -2.4799, -24.1662, -8.1735, -8.8024, -24.5418, -5.6076, -3.2842, -26.1854, -4.2106, 3.1592, -24.5974, -9.5695, -2.4799, -24.1662, -8.1735, 5.9263, -25.7571, -7.7138, -2.4799, -24.1662, -8.1735, -3.2842, -26.1854, -4.2106, 2.2416, -27.1118, -5.2205, -3.2842, -26.1854, -4.2106, -6.9504, -25.1906, 0.2214, -1.3757, -27.3372, -1.2776, -1.3757, -27.3372, -1.2776, -0.446, -26.9418, 1.0644, 2.2416, -27.1118, -5.2205, 2.2416, -27.1118, -5.2205, 5.1884, -24.9721, 2.269, 5.9263, -25.7571, -7.7138, -10.8777, -21.9674, 0.7398, -7.3297, -23.2276, 4.4928, -6.9504, -25.1906, 0.2214, -1.3757, -27.3372, -1.2776, -6.9504, -25.1906, 0.2214, -0.446, -26.9418, 1.0644, -6.9504, -25.1906, 0.2214, -7.3297, -23.2276, 4.4928, -0.446, -26.9418, 1.0644, 5.1884, -24.9721, 2.269, 8.2899, -23.1809, 0.5279, 9.1108, -24.3788, -6.3699, -12.8056, -19.1205, -12.5879, -15.0109, -13.9842, -14.5695, -16.0293, -18.4766, -10.2635, -7.1751, -15.7373, -18.1244, -5.8255, -22.644, -10.3643, -0.6547, -17.1694, -17.2432, -0.6547, -17.1694, -17.2432, -5.8255, -22.644, -10.3643, 2.5811, -20.5336, -14.1196, 6.177, -17.3011, -15.5279, 2.5811, -20.5336, -14.1196, 7.4587, -22.962, -10.9039, 6.177, -17.3011, -15.5279, 7.4587, -22.962, -10.9039, 8.8961, -17.2712, -13.9334, 7.4587, -22.962, -10.9039, 10.9906, -21.4812, -10.1978, 8.8961, -17.2712, -13.9334, 5.9263, -25.7571, -7.7138, 10.9906, -21.4812, -10.1978, 7.4587, -22.962, -10.9039, 5.9263, -25.7571, -7.7138, 9.1108, -24.3788, -6.3699, 10.9906, -21.4812, -10.1978, 8.2899, -23.1809, 0.5279, 5.1884, -24.9721, 2.269, 7.7514, -21.6016, 5.2103, 0.7477, -25.0291, 4.4133, 5.1884, -24.9721, 2.269, -0.446, -26.9418, 1.0644, -10.8777, -21.9674, 0.7398, -11.3291, -18.9326, 5.7282, -7.3297, -23.2276, 4.4928, -11.3291, -18.9326, 5.7282, -9.0249, -18.9497, 7.2775, -7.3297, -23.2276, 4.4928, -15.2933, -16.3257, 3.7843, -11.3291, -18.9326, 5.7282, -10.8777, -21.9674, 0.7398, -13.8601, -21.1184, -7.8027, -18.8209, -16.0009, -9.3402, -12.3623, -21.7041, -5.1056, -16.0293, -18.4766, -10.2635, -18.8209, -16.0009, -9.3402, -13.8601, -21.1184, -7.8027, -15.0109, -13.9842, -14.5695, -17.99, -14.5791, -12.5126, -16.0293, -18.4766, -10.2635, 8.8961, -17.2712, -13.9334, 12.9593, -14.5905, -13.2039, 13.6575, -8.9408, -14.3081, 13.6575, -8.9408, -14.3081, 17.2534, -3.4424, -9.2901, 14.6406, -3.7705, -14.0967, 14.6406, -3.7705, -14.0967, 16.5428, 1.2673, -9.7558, 13.7336, 0.5448, -14.2804, 4.7286, 3.0201, -18.8342, -3.5415, -0.421, -20.7523, 3.097, -2.0234, -20.7732, 4.7286, 3.0201, -18.8342, -3.4171, 5.2634, -19.3215, -3.5415, -0.421, -20.7523, 10.9906, -21.4812, -10.1978, 14.742, -17.3104, -6.3907, 12.9593, -14.5905, -13.2039, 17.0779, -8.9076, -7.3229, 18.2641, -8.1169, -0.8423, 17.2534, -3.4424, -9.2901, 17.2534, -3.4424, -9.2901, 16.9493, -1.3792, -4.7585, 16.5428, 1.2673, -9.7558, 14.742, -17.3104, -6.3907, 15.4056, -17.1896, -0.9876, 17.0779, -8.9076, -7.3229, 16.9493, -1.3792, -4.7585, 13.6119, 4.6226, -3.7321, 14.8998, 5.4171, -8.3243, 17.2169, -12.472, -0.7768, 18.2641, -8.1169, -0.8423, 17.0779, -8.9076, -7.3229, 18.2641, -8.1169, -0.8423, 13.8361, 2.393, 0.6504, 13.6119, 4.6226, -3.7321, 11.9746, -21.7431, -0.6329, 11.9105, -20.0338, 2.8168, 15.4056, -17.1896, -0.9876, 13.6575, -8.9408, -14.3081, 14.6406, -3.7705, -14.0967, 7.8636, -6.3013, -17.9299, 7.8636, -6.3013, -17.9299, 14.6406, -3.7705, -14.0967, 9.1714, -0.2329, -18.2824, 14.6406, -3.7705, -14.0967, 13.7336, 0.5448, -14.2804, 9.1714, -0.2329, -18.2824, 14.8998, 5.4171, -8.3243, 11.6494, 9.0107, -7.2911, 11.9058, 6.5444, -11.4516, 13.8361, 2.393, 0.6504, 13.2267, -3.3247, 4.0136, 11.4683, 3.4962, 2.9085, 15.4056, -17.1896, -0.9876, 13.2947, -14.4762, 3.6837, 14.8651, -11.6908, 1.8421, 13.3315, -20.7617, -5.344, 9.1108, -24.3788, -6.3699, 11.9746, -21.7431, -0.6329, 8.8961, -17.2712, -13.9334, 10.9906, -21.4812, -10.1978, 12.9593, -14.5905, -13.2039, -15.0109, -13.9842, -14.5695, -10.555, -11.7804, -18.9073, -15.8946, -8.9978, -16.8218, -10.555, -11.7804, -18.9073, -11.2419, -9.8557, -20.0858, -13.7813, -7.757, -19.4233, -15.8946, -8.9978, -16.8218, -13.7813, -7.757, -19.4233, -17.96, -4.6197, -17.2888, -13.7813, -7.757, -19.4233, -11.2419, -9.8557, -20.0858, -8.523, -4.6252, -20.9387, -15.7328, 2.1891, -17.4174, -13.7198, -3.224, -19.3163, -10.9534, 1.4185, -18.6795, -13.7198, -3.224, -19.3163, -8.523, -4.6252, -20.9387, -10.9534, 1.4185, -18.6795, -10.9534, 1.4185, -18.6795, -8.523, -4.6252, -20.9387, -3.5415, -0.421, -20.7523, -10.9534, 1.4185, -18.6795, -3.5415, -0.421, -20.7523, -3.4171, 5.2634, -19.3215, -10.9534, 1.4185, -18.6795, -3.4171, 5.2634, -19.3215, -8.4034, 7.2106, -16.3399, -7.1751, -15.7373, -18.1244, -4.0973, -12.9521, -19.4754, -10.555, -11.7804, -18.9073, -8.523, -4.6252, -20.9387, -0.775, -7.1924, -20.6148, -3.5415, -0.421, -20.7523, -4.2933, 8.1308, -17.5987, -3.4171, 5.2634, -19.3215, -1.1836, 6.7888, -18.5045, -0.775, -7.1924, -20.6148, 7.8636, -6.3013, -17.9299, 3.097, -2.0234, -20.7732, 3.097, -2.0234, -20.7732, 7.8636, -6.3013, -17.9299, 9.1714, -0.2329, -18.2824, 9.1714, -0.2329, -18.2824, 8.5156, 3.5774, -16.901, 4.7286, 3.0201, -18.8342, -17.96, -4.6197, -17.2888, -13.7198, -3.224, -19.3163, -20.2798, -0.8083, -15.9034, -13.2761, 8.4968, -14.3522, -10.9534, 1.4185, -18.6795, -8.4034, 7.2106, -16.3399, -1.1836, 6.7888, -18.5045, 4.7286, 3.0201, -18.8342, 1.6618, 10.2065, -13.6837, 2.5811, -20.5336, -14.1196, 6.177, -17.3011, -15.5279, -0.6547, -17.1694, -17.2432, -0.6547, -17.1694, -17.2432, 6.177, -17.3011, -15.5279, -0.2763, -11.6532, -19.6218, -10.6554, -18.431, -13.8628, -7.1751, -15.7373, -18.1244, -10.555, -11.7804, -18.9073, -12.8056, -19.1205, -12.5879, -10.6554, -18.431, -13.8628, -10.555, -11.7804, -18.9073 )

[node name="ast_ice_1" instance=ExtResource( 1 )]
script = ExtResource( 2 )

[node name="StaticBody3D" type="StaticBody3D" parent="ast_ice_1" index="0"]

[node name="CollisionShape3D" type="CollisionShape3D" parent="ast_ice_1/StaticBody3D" index="0"]
shape = SubResource( 1 )

[connection signal="input_event" from="ast_ice_1/StaticBody3D" to="." method="_on_StaticBody_input_event"]
